dbname;sektion;clean_gridname;grid;mpi
MPI für Eisenforschung;CPTS;eisenforschung;grid.13829.31;Max-Planck-Institut für Eisenforschung
MPI für medizinische Forschung;BMS;medizinische forschung;grid.414703.5;Max-Planck-Institut für medizinische Forschung
Friedrich-Miescher-Laboratorium für biologische Arbeitsgruppen in der MPG;BMS;friedrichmiescherlaboratorium biologische arbeitsgruppen;grid.418026.9;Friedrich-Miescher-Laboratorium für biologische Arbeitsgruppen in der Max-Planck-Gesellschaft
Fritz-Haber-Institut der MPG;CPTS;fritzhaberinstitut;grid.418028.7;Fritz-Haber-Institut der Max-Planck-Gesellschaft
MPI für Herz- und Lungenforschung  (W. G. Kerckhoff-Institut);BMS;herz lungenforschung;grid.418032.c;Max-Planck-Institut für Herz- und Lungenforschung
MPI für Stoffwechselforschung (ab 2010);BMS;stoffwechselforschung;grid.418034.a;Max-Planck-Institut für Stoffwechselforschung
MPI für biophysikalische Chemie (Karl-Friedrich-Bonhoeffer-Institut) (seit 1971);CPTS;biophysikalische chemie;grid.418140.8;Max-Planck-Institut für Biophysikalische Chemie
MPI für Infektionsbiologie;BMS;infektionsbiologie;grid.418159.0;Max-Planck-Institut für Infektionsbiologie
MPI für chemische Ökologie;BMS;chemische ökologie;grid.418160.a;Max-Planck-Institut für Chemische Ökologie
MPI für molekulare Pflanzenphysiologie;BMS;molekulare pflanzenphysiologie;grid.418390.7;Max-Planck-Institut für molekulare Pflanzenphysiologie
MPI für molekulare Physiologie (1993 entstanden aus der Zusammenlegung des MPI für Ernährungsphysiologie und des MPI für Systemphysiologie);BMS;molekulare physiologie;grid.418441.c;Max-Planck-Institut für molekulare Physiologie
MPI für Biochemie (ab 1973, ACHTUNG: Nicht dasselbe wie MPI für Biochemie VOR 1972);BMS;biochemie;grid.418615.f;Max-Planck-Institut für Biochemie
MPI für Biophysik;BMS;biophysik;grid.419494.5;Max-Planck-Institut für Biophysik
MPI für Entwicklungsbiologie (seit 1984);BMS;entwicklungsbiologie;grid.419495.4;Max-Planck-Institut für Entwicklungsbiologie
MPI für Pflanzenzüchtungsforschung (ab 2009);BMS;pflanzenzüchtungsforschung;grid.419498.9;Max-Planck-Institut für Pflanzenzüchtungsforschung
MPI für Biogeochemie (1996-1997 MPI für die Erforschung globaler biogeochemischer Kreisläufe);CPTS;biogeochemie;grid.419500.9;Max-Planck-Institut für Biogeochemie
MPI für biologische Kybernetik;BMS;biologische kybernetik;grid.419501.8;Max-Planck-Institut für biologische Kybernetik
MPI für Biologie des Alterns;BMS;biologie alterns;grid.419502.b;Max-Planck-Institut für Biologie des Alterns
MPI für Hirnforschung;BMS;hirnforschung;grid.419505.c;Max-Planck-Institut für Hirnforschung
MPI für chemische Physik fester Stoffe;CPTS;chemische physik fester stoffe;grid.419507.e;Max-Planck-Institut für Chemische Physik fester Stoffe
MPI für Chemie (Otto-Hahn-Institut);CPTS;chemie otto hahn;grid.419509.0;Max Planck Institut für Chemie
MPI für demografische Forschung;GSHS;demografische forschung;grid.419511.9;Max-Planck-Institut für demografische Forschung
MPI für Dynamik und Selbstorganisation (ab 2004);CPTS;dynamik selbstorganisation;grid.419514.c;Max-Planck-Institut für Dynamik und Selbstorganisation
MPI für Dynamik komplexer technischer Systeme;CPTS;dynamik komplexer technischer systeme;grid.419517.f;Max-Planck-Institut für Dynamik Komplexer Technischer Systeme
MPI für evolutionäre Anthropologie;GSHS;evolutionäre anthropologie;grid.419518.0;Max-Planck-Institut für evolutionäre Anthropologie
MPI für Evolutionsbiologie (ab 2007);BMS;evolutionsbiologie;grid.419520.b;Max-Planck-Institut für Evolutionsbiologie
MPI für experimentelle Medizin (1948-1965 Medizinische Forschungsanstalt der MPG);BMS;experimentelle medizin;grid.419522.9;Max-Planck-Institut für Experimentelle Medizin
MPI für Kognitions- und Neurowissenschaften;GSHS;kognitions neurowissenschaften;grid.419524.f;Max-Planck-Institut für Kognitions- und Neurowissenschaften
MPI für Bildungsforschung (1963-1971 Institut für Bildungsforschung in der MPG);GSHS;bildungsforschung;grid.419526.d;Max-Planck-Institut für Bildungsforschung
MPI für Informatik;CPTS;informatik;grid.419528.3;Max-Planck-Institut für Informatik
MPI für marine Mikrobiologie (ab 1991);BMS;marine mikrobiologie;grid.419529.2;Max-Planck-Institut für marine Mikrobiologie
MPI für Mathematik in den Naturwissenschaften;CPTS;mathematik den naturwissenschaften;grid.419532.8;Max-Planck-Institut für Mathematik in den Naturwissenschaften
MPI für Intelligente Systeme (ab 2011);CPTS;intelligente systeme;grid.419534.e;Max-Planck-Institut für Intelligente Systeme
MPI für molekulare Zellbiologie und Genetik;BMS;molekulare zellbiologie genetik;grid.419537.d;Max-Planck-Institut für molekulare Zellbiologie und Genetik
MPI für molekulare Genetik (ab 1964);BMS;molekulare genetik;grid.419538.2;Max-Planck-Institut für molekulare Genetik
MPI für Ornithologie (1997-2001 Forschungsstelle für Ornithologie der MPG, 2001-2004 Max-Planck-Forschungsstelle für Ornithologie der MPG);BMS;ornithologie;grid.419542.f;Max-Planck-Institut für Ornithologie
MPI für Polymerforschung;CPTS;polymerforschung;grid.419547.a;Max-Planck-Institut für Polymerforschung
MPI für Psychiatrie (bis 1966 Deutsche Forschungsanstalt für Psychiatrie (MPI));BMS;psychiatrie;grid.419548.5;Max-Planck-Institut für Psychiatrie
MPI für Psycholinguistik;GSHS;psycholinguistik;grid.419550.c;Max-Planck-Institut für Psycholinguistik
MPI für Festkörperforschung (1971-2004 mit Außenstelle in Grenoble);CPTS;festkörperforschung;grid.419552.e;Max-Planck-Institut für Festkörperforschung
MPI für terrestrische Mikrobiologie;BMS;terrestrische mikrobiologie;grid.419554.8;Max-Planck-Institut für terrestrische Mikrobiologie
MPI für Wissenschaftsgeschichte;GSHS;wissenschaftsgeschichte;grid.419556.a;Max-Planck-Institut für Wissenschaftsgeschichte
MPI für Physik komplexer Systeme;CPTS;physik komplexer systeme;grid.419560.f;Max-Planck-Institut für Physik komplexer Systeme
MPI für die Physik des Lichts;CPTS;physik lichts;grid.419562.d;Max-Planck-Institut für die Physik des Lichts
MPI für Kolloid- und Grenzflächenforschung;CPTS;kolloid grenzflächenforschung;grid.419564.b;Max-Planck-Institut für Kolloid- und Grenzflächenforschung
MPI für chemische Energiekonversion (ab 2012);CPTS;chemische energiekonversion;grid.419576.8;Max Planck Institut für Chemische Energiekonversion
MPI für Biologie (1949-2004);BMS;biologie;grid.419580.1;Max Planck Institut für Biologie
MPI für Kernphysik;CPTS;kernphysik;grid.419604.e;Max-Planck-Institut für Kernphysik
MPI für Kohlenforschung;CPTS;kohlenforschung;grid.419607.d;Max-Planck-Institut für Kohlenforschung
Deutsches Klimarechenzentrum ;CPTS;deutsches klimarechenzentrum;grid.424215.4;Deutsches Klimarechenzentrum
MPI für Astronomie;CPTS;astronomie;grid.429508.2;Max-Planck-Institut für Astronomie
MPI für Immunobiologie und Epigenetik;BMS;immunobiologie epigenetik;grid.429509.3;Max-Planck-Institut für Immunobiologie und Epigenetik
MPI für Neurobiologie;BMS;neurobiologie;grid.429510.b;Max-Planck-Institut für Neurobiologie
MPI für Physik (1948-1958);CPTS;physik;grid.435824.c;Max-Planck-Institut für Physik
MPI für Sonnensystemforschung (ab 2004);CPTS;sonnensystemforschung;grid.435826.e;Max-Planck-Institut für Sonnensystemforschung
Forschungszentrum caesar;BMS;forschungszentrum caesar;grid.438114.b;Forschungszentrum caesar
MPI für Gravitationsphysik;CPTS;gravitationsphysik;grid.450243.4;Max-Planck-Institut für Gravitationsphysik
MPI für extraterrestrische Physik (ab 1991);CPTS;extraterrestrische physik;grid.450265.0;Max-Planck-Institut für Extraterrestrische Physik
MPI für Radioastronomie;CPTS;radioastronomie;grid.450267.2;Max-Planck-Institut für Radioastronomie
MPI für Meteorologie;CPTS;meteorologie;grid.450268.d;Max-Planck-Institut für Meteorologie
MPI für Mikrostrukturphysik;CPTS;mikrostrukturphysik;grid.450270.4;Max-Planck-Institut für Mikrostrukturphysik
MPI für Quantenoptik (1976-1981 Projektgruppe für Laserforschung der MPG);CPTS;quantenoptik;grid.450272.6;Max-Planck-Institut für Quantenoptik
MPI Halbleiterlabor;CPTS;halbleiterlabor;grid.450323.3;Halbleiterlabor der Max-Planck-Gesellschaft
MPI für Astrophysik (ab 1991);CPTS;astrophysik;grid.452596.9;Max Planck Institut für Astrophysik
MPI zur Erforschung multireligiöser und multiethnischer Gesellschaften (ab 2007);GSHS;erforschung multireligiöser multiethnischer gesellschaften;grid.454072.0;Max-Planck-Institut zur Erforschung Multireligiöser und Multiethnischer Gesellschaften
Ernst Strüngmann Institut;BMS;ernst strüngmann;grid.461715.0;Ernst Strüngmann Institut
MPI für ausländisches öffentliches Recht und Völkerrecht;GSHS;ausländisches öffentliches recht völkerrecht;grid.461768.a;Max-Planck-Institut für ausländisches öffentliches Recht und Völkerrecht
MPI für ausländisches und internationales Privatrecht;GSHS;ausländisches internationales privatrecht;grid.461770.3;Max-Planck-Institut für ausländisches und internationales Privatrecht
MPI für ausländisches und internationales Strafrecht;GSHS;ausländisches internationales strafrecht;grid.461774.7;Max-Planck-Institut für ausländisches und internationales Strafrecht
MPI für empirische Ästhetik;GSHS;empirische ästhetik;grid.461782.e;Max-Planck-Institut für Empirische Ästhetik
MPI für ethnologische Forschung;GSHS;ethnologische forschung;grid.461785.9;Max-Planck-Institut für ethnologische Forschung
MPI für europäische Rechtsgeschichte (1961-1964 MPI für vergleichende Rechtsgeschichte);GSHS;europäische rechtsgeschichte;grid.461787.b;Max-Planck-Institut für Europäische Rechtsgeschichte
MPI für Gesellschaftsforschung;GSHS;gesellschaftsforschung;grid.461792.f;Max-Planck-Institut für Gesellschaftsforschung
MPI für Mathematik;CPTS;mathematik;grid.461798.5;Max-Planck-Institut für Mathematik
MPI für molekulare Biomedizin (ab 2004);BMS;molekulare biomedizin;grid.461801.a;Max-Planck-Institut für Molekulare Biomedizin
MPI für Plasmaphysik (1960-1971 Institut für Plasmaphysik)(ab 1994 +Teilinstitut in Greifswald);CPTS;plasmaphysik;grid.461804.f;Max-Planck-Institut für Plasmaphysik
MPI für Steuerrecht und Öffentliche Finanzen (ab 2011);GSHS;steuerrecht öffentliche finanzen;grid.461808.3;Max-Planck-Institut für Steuerrecht und Öffentliche Finanzen
MPI zur Erforschung von Gemeinschaftsgütern (1996-2001 Projektgruppe Recht der Gemeinschaftsgüter, 2001-2003 Max-Planck-Projektgruppe Recht der Gemeinschaftsgüter);GSHS;erforschung gemeinschaftsgütern;grid.461813.9;Max-Planck-Institut zur Erforschung von Gemeinschaftsgütern
Bibliotheca Hertziana - MPI für Kunstgeschichte;GSHS;bibliotheca hertziana kunstgeschichte;grid.461961.d;Bibliotheca Hertziana - Max-Planck-Institut für Kunstgeschichte
MPI für Sozialrecht und Sozialpolitik (ab 2011);GSHS;sozialrecht sozialpolitik;grid.462523.4;Max-Planck-Institut für Sozialrecht und Sozialpolitik
Max-Planck-Forschungsstelle für Enzymologie der Proteinfaltung;BMS;enzymologie proteinfaltung;grid.462530.6;Max-Planck-Forschungsstelle für Enzymologie der Proteinfaltung
Max-Planck-Arbeitsgruppen für strukturelle Molekularbiologie;BMS;maxplanckarbeitsgruppen strukturelle molekularbiologie;grid.469476.e;Max-Planck-Arbeitsgruppen für strukturelle Molekularbiologie
MPI für Innovation und Wettbewerb;GSHS;innovation wettbewerb;grid.469479.1;Max Planck Institut für Innovation und Wettbewerb
MPI für Struktur und Dynamik der Materie;CPTS;struktur dynamik materie;grid.469852.4;Max-Planck-Institut für Struktur und Dynamik der Materie
MPI für Softwaresysteme;CPTS;softwaresysteme;grid.469860.5;Max-Planck-Institut für Softwaresysteme
MPI für Menschheitsgeschichte (ab 2014);GSHS;menschheitsgeschichte;grid.469873.7;Max-Planck-Institut für Menschheitsgeschichte
Rechenzentrum Garching;CPTS;rechenzentrum garching;grid.470196.d;Rechenzentrum Garching
Max-Planck-Forschungsstelle für Neurogenetik;BMS;neurogenetik;grid.470209.8;Max-Planck-Forschungsstelle für Neurogenetik
Beilstein-Institut zur Förderung der Chemischen Wissenschaften;CPTS;beilsteininstitut chemischen;grid.483783.3;Beilstein-Institut zur Förderung der Chemischen Wissenschaften
Instituto de Investigación en Biomedicina de Buenos Aires  (Instituto Partner de la Sociedad Max Planck);BMS;instituto de investigación en biomedicina buenos aires partner la sociedad;grid.507417.0;Instituto de Investigación en Biomedicina de Buenos Aires - Instituto Partner de la Sociedad Max Planck
Max-Planck-Forschungsstelle für die Wissenschaft der Pathogene;BMS;wissenschaft pathogene;grid.507437.2;Max-Planck-Forschungsstelle für die Wissenschaft der Pathogene
Max-Planck-Institut für Verhaltensbiologie;BMS;verhaltensbiologie;grid.507516.0;Max-Planck-Institut für Verhaltensbiologie
Forschungsgruppe Soziale Neurowissenschaft;BMS;forschungsgruppe soziale neurowissenschaft;grid.507726.1;Forschungsgruppe Soziale Neurowissenschaft
Max-Planck-Institut für Cybersicherheit und Schutz der Privatsphäre;CPTS;cybersicherheit schutz privatsphäre;grid.508488.9;Max-Planck-Institut für Cybersicherheit und Schutz der Privatsphäre
Center for Free-Electron Laser Science;CPTS;center freeelectron laser science;grid.466493.a;Center for Free-Electron Laser Science
Gesellschaft für wissenschaftliche Datenverarbeitung mbH Göttingen;CPTS;gesellschaft wissenschaftliche datenverarbeitung mbh göttingen;grid.434972.f;Gesellschaft für wissenschaftliche Datenverarbeitung mbH Göttingen
Kunsthistorisches Institut in Florenz - MPI (KHI) (ab 2002);GSHS;kunsthistorisches florenz;grid.462507.2;Kunsthistorisches Institut in Florenz
Max Planck Center for Visual Computing and Communication;CPTS;center visual computing and communication;grid.484444.c;Max Planck Center for Visual Computing and Communication
Max Planck Digital Library;CPTS;digital library;grid.431460.4;Max Planck Digital Library
Max Planck Florida Institute for Neuroscience;BMS;florida neuroscience;grid.421185.b;Max Planck Florida Institute for Neuroscience
Max Planck Graduate Center;graduate center;graduate center;grid.484448.0;Max Planck Graduate Center
Max Planck Innovation;innovation;innovation;grid.474028.d;Max Planck Innovation
Max Planck Institute Luxemburg for International, European and Regulatory Procedural Law;GSHS;luxemburg international european and regulatory procedural law;grid.470201.0;Max Planck Institute Luxemburg for International, European and Regulatory Procedural Law
Max Planck Institutes Library;library;library;grid.494632.e;Max Planck Institutes Library
Max Planck University of Twente Center for Complex Fluid Dynamics;CPTS;university twente center complex fluid dynamics;grid.507518.e;Max Planck University of Twente Center for Complex Fluid Dynamics
Max Planck Bristol Centre for Minimal Biology;BMS;planckbristol centre minimal biology;grid.507517.1;Max Planck-Bristol Centre for Minimal Biology
MPI für Zellbiologie (1968-2003);BMS;zellbiologie;grid.500074.6;Max-Planck-Institut für Zellbiologie
Minerva Stiftung;minerva stiftung;minerva stiftung;grid.457402.0;Minerva Stiftung
Munich Centre for Advanced Photonics;CPTS;munich centre advanced photonics;grid.469346.a;Munich Centre for Advanced Photonics