year,total
1962,343084
1957,275886
1970,560242
1967,472832
1978,699772
1984,854301
1985,885930
1965,426950
2001,1483387
1993,1157803
1997,1331241
1951,223368
1998,1349362
1991,1097427
1966,446879
1979,719848
1981,769099
2003,1633129
1994,1190587
2005,1895422
1958,281397
1988,1009039
1982,791324
1960,312989
1953,241012
1947,142847
1948,161262
1945,90624
1975,632260
1996,1292677
1989,1051106
1999,1366554
1964,399508
1992,1124318
1968,498361
1963,376354
1952,230949
1969,518140
1995,1250504
2004,1757402
1954,246838
1961,331745
1974,610029
1977,671519
1956,260987
1986,916921
2002,1525623
1949,164956
1959,297740
1983,822741
1971,563047
1946,123393
1955,254772
1973,597807
1990,1092764
1980,743012
1972,583546
1950,199700
2000,1448856
1976,646636
1987,967233
