org,year,forname,total
United States,1945,16 Studies in Human Society,6
United States,1945,14 Economics,1
United States,1945,03 Chemical Sciences,410
United States,1945,"15 Commerce, Management, Tourism and Services",6
United States,1945,10 Technology,5
United States,1945,02 Physical Sciences,46
United States,1945,13 Education,82
United States,1945,17 Psychology and Cognitive Sciences,113
United States,1945,06 Biological Sciences,713
United States,1945,05 Environmental Sciences,75
United States,1945,01 Mathematical Sciences,17
United States,1945,11 Medical and Health Sciences,1398
United States,1945,09 Engineering,12
United States,1945,07 Agricultural and Veterinary Sciences,268
United States,1946,13 Education,75
United States,1946,03 Chemical Sciences,439
United States,1946,11 Medical and Health Sciences,1546
United States,1946,05 Environmental Sciences,72
United States,1946,06 Biological Sciences,787
United States,1946,"15 Commerce, Management, Tourism and Services",2
United States,1946,16 Studies in Human Society,2
United States,1946,22 Philosophy and Religious Studies,2
United States,1946,02 Physical Sciences,34
United States,1946,09 Engineering,10
United States,1946,17 Psychology and Cognitive Sciences,77
United States,1946,10 Technology,6
United States,1946,07 Agricultural and Veterinary Sciences,307
United States,1946,01 Mathematical Sciences,14
United States,1947,10 Technology,12
United States,1947,02 Physical Sciences,46
United States,1947,14 Economics,1
United States,1947,06 Biological Sciences,847
United States,1947,21 History and Archaeology,1
United States,1947,09 Engineering,23
United States,1947,"15 Commerce, Management, Tourism and Services",5
United States,1947,01 Mathematical Sciences,21
United States,1947,13 Education,86
United States,1947,05 Environmental Sciences,76
United States,1947,07 Agricultural and Veterinary Sciences,324
United States,1947,16 Studies in Human Society,6
United States,1947,17 Psychology and Cognitive Sciences,114
United States,1947,11 Medical and Health Sciences,1687
United States,1947,03 Chemical Sciences,492
United States,1948,13 Education,119
United States,1948,07 Agricultural and Veterinary Sciences,404
United States,1948,06 Biological Sciences,1039
United States,1948,17 Psychology and Cognitive Sciences,140
United States,1948,03 Chemical Sciences,628
United States,1948,"15 Commerce, Management, Tourism and Services",6
United States,1948,04 Earth Sciences,2
United States,1948,05 Environmental Sciences,110
United States,1948,11 Medical and Health Sciences,1904
United States,1948,10 Technology,9
United States,1948,14 Economics,2
United States,1948,09 Engineering,45
United States,1948,01 Mathematical Sciences,25
United States,1948,02 Physical Sciences,103
United States,1948,16 Studies in Human Society,5
United States,1949,11 Medical and Health Sciences,2023
United States,1949,21 History and Archaeology,1
United States,1949,09 Engineering,39
United States,1949,05 Environmental Sciences,90
United States,1949,10 Technology,11
United States,1949,07 Agricultural and Veterinary Sciences,374
United States,1949,04 Earth Sciences,1
United States,1949,"15 Commerce, Management, Tourism and Services",8
United States,1949,03 Chemical Sciences,630
United States,1949,01 Mathematical Sciences,21
United States,1949,14 Economics,4
United States,1949,17 Psychology and Cognitive Sciences,200
United States,1949,16 Studies in Human Society,10
United States,1949,22 Philosophy and Religious Studies,1
United States,1949,06 Biological Sciences,1019
United States,1949,02 Physical Sciences,73
United States,1949,13 Education,131
United States,1950,17 Psychology and Cognitive Sciences,199
United States,1950,14 Economics,4
United States,1950,06 Biological Sciences,996
United States,1950,07 Agricultural and Veterinary Sciences,377
United States,1950,04 Earth Sciences,2
United States,1950,05 Environmental Sciences,128
United States,1950,09 Engineering,60
United States,1950,13 Education,96
United States,1950,"20 Language, Communication and Culture",2
United States,1950,22 Philosophy and Religious Studies,2
United States,1950,16 Studies in Human Society,14
United States,1950,03 Chemical Sciences,569
United States,1950,02 Physical Sciences,93
United States,1950,11 Medical and Health Sciences,1914
United States,1950,01 Mathematical Sciences,32
United States,1950,21 History and Archaeology,2
United States,1950,"15 Commerce, Management, Tourism and Services",26
United States,1950,10 Technology,10
United States,1951,01 Mathematical Sciences,25
United States,1951,16 Studies in Human Society,13
United States,1951,22 Philosophy and Religious Studies,1
United States,1951,07 Agricultural and Veterinary Sciences,450
United States,1951,13 Education,167
United States,1951,21 History and Archaeology,1
United States,1951,06 Biological Sciences,1049
United States,1951,11 Medical and Health Sciences,2084
United States,1951,03 Chemical Sciences,567
United States,1951,10 Technology,11
United States,1951,14 Economics,6
United States,1951,05 Environmental Sciences,163
United States,1951,02 Physical Sciences,43
United States,1951,09 Engineering,46
United States,1951,"20 Language, Communication and Culture",1
United States,1951,04 Earth Sciences,2
United States,1951,17 Psychology and Cognitive Sciences,229
United States,1951,"15 Commerce, Management, Tourism and Services",15
United States,1952,02 Physical Sciences,90
United States,1952,17 Psychology and Cognitive Sciences,218
United States,1952,11 Medical and Health Sciences,2146
United States,1952,05 Environmental Sciences,120
United States,1952,13 Education,147
United States,1952,21 History and Archaeology,4
United States,1952,22 Philosophy and Religious Studies,5
United States,1952,03 Chemical Sciences,615
United States,1952,01 Mathematical Sciences,30
United States,1952,10 Technology,16
United States,1952,09 Engineering,96
United States,1952,"20 Language, Communication and Culture",5
United States,1952,14 Economics,7
United States,1952,04 Earth Sciences,1
United States,1952,06 Biological Sciences,1067
United States,1952,07 Agricultural and Veterinary Sciences,417
United States,1952,"15 Commerce, Management, Tourism and Services",7
United States,1952,16 Studies in Human Society,7
United States,1952,18 Law and Legal Studies,1
United States,1953,11 Medical and Health Sciences,2217
United States,1953,06 Biological Sciences,1226
United States,1953,"15 Commerce, Management, Tourism and Services",14
United States,1953,"20 Language, Communication and Culture",6
United States,1953,02 Physical Sciences,160
United States,1953,16 Studies in Human Society,15
United States,1953,14 Economics,3
United States,1953,22 Philosophy and Religious Studies,6
United States,1953,17 Psychology and Cognitive Sciences,162
United States,1953,09 Engineering,86
United States,1953,21 History and Archaeology,6
United States,1953,10 Technology,11
United States,1953,05 Environmental Sciences,186
United States,1953,01 Mathematical Sciences,45
United States,1953,03 Chemical Sciences,615
United States,1953,13 Education,198
United States,1953,07 Agricultural and Veterinary Sciences,495
United States,1954,06 Biological Sciences,1226
United States,1954,16 Studies in Human Society,12
United States,1954,02 Physical Sciences,133
United States,1954,22 Philosophy and Religious Studies,4
United States,1954,21 History and Archaeology,4
United States,1954,03 Chemical Sciences,612
United States,1954,"20 Language, Communication and Culture",4
United States,1954,17 Psychology and Cognitive Sciences,155
United States,1954,13 Education,160
United States,1954,08 Information and Computing Sciences,18
United States,1954,01 Mathematical Sciences,33
United States,1954,11 Medical and Health Sciences,2317
United States,1954,07 Agricultural and Veterinary Sciences,508
United States,1954,09 Engineering,131
United States,1954,14 Economics,10
United States,1954,10 Technology,18
United States,1954,05 Environmental Sciences,198
United States,1954,"15 Commerce, Management, Tourism and Services",13
United States,1955,22 Philosophy and Religious Studies,2
United States,1955,11 Medical and Health Sciences,2359
United States,1955,05 Environmental Sciences,157
United States,1955,13 Education,154
United States,1955,08 Information and Computing Sciences,25
United States,1955,16 Studies in Human Society,18
United States,1955,10 Technology,25
United States,1955,01 Mathematical Sciences,79
United States,1955,"15 Commerce, Management, Tourism and Services",24
United States,1955,06 Biological Sciences,1278
United States,1955,03 Chemical Sciences,590
United States,1955,07 Agricultural and Veterinary Sciences,503
United States,1955,"20 Language, Communication and Culture",3
United States,1955,04 Earth Sciences,1
United States,1955,09 Engineering,148
United States,1955,02 Physical Sciences,204
United States,1955,17 Psychology and Cognitive Sciences,158
United States,1955,14 Economics,11
United States,1955,21 History and Archaeology,3
United States,1956,05 Environmental Sciences,151
United States,1956,07 Agricultural and Veterinary Sciences,500
United States,1956,11 Medical and Health Sciences,2554
United States,1956,17 Psychology and Cognitive Sciences,246
United States,1956,02 Physical Sciences,236
United States,1956,08 Information and Computing Sciences,51
United States,1956,04 Earth Sciences,10
United States,1956,01 Mathematical Sciences,120
United States,1956,21 History and Archaeology,2
United States,1956,06 Biological Sciences,1433
United States,1956,09 Engineering,171
United States,1956,10 Technology,20
United States,1956,14 Economics,16
United States,1956,16 Studies in Human Society,26
United States,1956,22 Philosophy and Religious Studies,3
United States,1956,13 Education,179
United States,1956,"20 Language, Communication and Culture",1
United States,1956,03 Chemical Sciences,639
United States,1956,"15 Commerce, Management, Tourism and Services",45
United States,1957,02 Physical Sciences,313
United States,1957,10 Technology,25
United States,1957,"15 Commerce, Management, Tourism and Services",58
United States,1957,09 Engineering,609
United States,1957,"20 Language, Communication and Culture",7
United States,1957,17 Psychology and Cognitive Sciences,257
United States,1957,16 Studies in Human Society,32
United States,1957,03 Chemical Sciences,637
United States,1957,07 Agricultural and Veterinary Sciences,514
United States,1957,11 Medical and Health Sciences,2504
United States,1957,13 Education,179
United States,1957,05 Environmental Sciences,161
United States,1957,08 Information and Computing Sciences,73
United States,1957,12 Built Environment and Design,7
United States,1957,01 Mathematical Sciences,106
United States,1957,21 History and Archaeology,6
United States,1957,14 Economics,18
United States,1957,22 Philosophy and Religious Studies,7
United States,1957,04 Earth Sciences,14
United States,1957,06 Biological Sciences,1476
United States,1958,07 Agricultural and Veterinary Sciences,472
United States,1958,11 Medical and Health Sciences,2587
United States,1958,06 Biological Sciences,1419
United States,1958,"15 Commerce, Management, Tourism and Services",48
United States,1958,"20 Language, Communication and Culture",4
United States,1958,21 History and Archaeology,1
United States,1958,16 Studies in Human Society,29
United States,1958,13 Education,167
United States,1958,17 Psychology and Cognitive Sciences,364
United States,1958,03 Chemical Sciences,689
United States,1958,09 Engineering,871
United States,1958,05 Environmental Sciences,140
United States,1958,01 Mathematical Sciences,272
United States,1958,02 Physical Sciences,546
United States,1958,14 Economics,24
United States,1958,12 Built Environment and Design,5
United States,1958,04 Earth Sciences,14
United States,1958,22 Philosophy and Religious Studies,1
United States,1958,10 Technology,26
United States,1958,08 Information and Computing Sciences,95
United States,1959,10 Technology,42
United States,1959,22 Philosophy and Religious Studies,5
United States,1959,17 Psychology and Cognitive Sciences,335
United States,1959,09 Engineering,581
United States,1959,03 Chemical Sciences,793
United States,1959,08 Information and Computing Sciences,121
United States,1959,05 Environmental Sciences,130
United States,1959,01 Mathematical Sciences,446
United States,1959,12 Built Environment and Design,23
United States,1959,16 Studies in Human Society,27
United States,1959,06 Biological Sciences,1581
United States,1959,21 History and Archaeology,1
United States,1959,11 Medical and Health Sciences,2674
United States,1959,07 Agricultural and Veterinary Sciences,540
United States,1959,04 Earth Sciences,21
United States,1959,"15 Commerce, Management, Tourism and Services",44
United States,1959,02 Physical Sciences,788
United States,1959,13 Education,168
United States,1959,"20 Language, Communication and Culture",10
United States,1959,14 Economics,18
United States,1960,13 Education,200
United States,1960,14 Economics,28
United States,1960,22 Philosophy and Religious Studies,2
United States,1960,07 Agricultural and Veterinary Sciences,606
United States,1960,"15 Commerce, Management, Tourism and Services",38
United States,1960,21 History and Archaeology,3
United States,1960,17 Psychology and Cognitive Sciences,312
United States,1960,09 Engineering,623
United States,1960,12 Built Environment and Design,5
United States,1960,03 Chemical Sciences,825
United States,1960,06 Biological Sciences,1867
United States,1960,01 Mathematical Sciences,422
United States,1960,05 Environmental Sciences,239
United States,1960,08 Information and Computing Sciences,176
United States,1960,04 Earth Sciences,51
United States,1960,16 Studies in Human Society,15
United States,1960,02 Physical Sciences,809
United States,1960,10 Technology,51
United States,1960,11 Medical and Health Sciences,2798
United States,1960,"20 Language, Communication and Culture",3
United States,1961,17 Psychology and Cognitive Sciences,318
United States,1961,01 Mathematical Sciences,470
United States,1961,13 Education,137
United States,1961,"20 Language, Communication and Culture",12
United States,1961,02 Physical Sciences,788
United States,1961,08 Information and Computing Sciences,287
United States,1961,09 Engineering,601
United States,1961,07 Agricultural and Veterinary Sciences,529
United States,1961,05 Environmental Sciences,255
United States,1961,12 Built Environment and Design,7
United States,1961,16 Studies in Human Society,34
United States,1961,14 Economics,27
United States,1961,21 History and Archaeology,7
United States,1961,11 Medical and Health Sciences,2817
United States,1961,10 Technology,69
United States,1961,03 Chemical Sciences,700
United States,1961,"15 Commerce, Management, Tourism and Services",56
United States,1961,06 Biological Sciences,1735
United States,1961,04 Earth Sciences,49
United States,1961,22 Philosophy and Religious Studies,7
United States,1962,10 Technology,52
United States,1962,06 Biological Sciences,1878
United States,1962,16 Studies in Human Society,35
United States,1962,21 History and Archaeology,9
United States,1962,13 Education,192
United States,1962,12 Built Environment and Design,9
United States,1962,14 Economics,41
United States,1962,17 Psychology and Cognitive Sciences,370
United States,1962,09 Engineering,643
United States,1962,01 Mathematical Sciences,501
United States,1962,11 Medical and Health Sciences,2666
United States,1962,07 Agricultural and Veterinary Sciences,556
United States,1962,05 Environmental Sciences,250
United States,1962,02 Physical Sciences,922
United States,1962,"15 Commerce, Management, Tourism and Services",59
United States,1962,03 Chemical Sciences,781
United States,1962,08 Information and Computing Sciences,307
United States,1962,04 Earth Sciences,56
United States,1962,22 Philosophy and Religious Studies,12
United States,1962,"20 Language, Communication and Culture",9
United States,1963,14 Economics,54
United States,1963,12 Built Environment and Design,17
United States,1963,01 Mathematical Sciences,534
United States,1963,22 Philosophy and Religious Studies,12
United States,1963,06 Biological Sciences,1864
United States,1963,09 Engineering,655
United States,1963,02 Physical Sciences,919
United States,1963,03 Chemical Sciences,764
United States,1963,11 Medical and Health Sciences,2780
United States,1963,16 Studies in Human Society,53
United States,1963,04 Earth Sciences,46
United States,1963,13 Education,240
United States,1963,10 Technology,35
United States,1963,08 Information and Computing Sciences,302
United States,1963,"15 Commerce, Management, Tourism and Services",78
United States,1963,"20 Language, Communication and Culture",11
United States,1963,17 Psychology and Cognitive Sciences,450
United States,1963,21 History and Archaeology,11
United States,1963,18 Law and Legal Studies,1
United States,1963,05 Environmental Sciences,225
United States,1963,07 Agricultural and Veterinary Sciences,571
United States,1964,10 Technology,77
United States,1964,05 Environmental Sciences,271
United States,1964,13 Education,278
United States,1964,03 Chemical Sciences,934
United States,1964,01 Mathematical Sciences,696
United States,1964,16 Studies in Human Society,27
United States,1964,22 Philosophy and Religious Studies,6
United States,1964,08 Information and Computing Sciences,251
United States,1964,11 Medical and Health Sciences,2913
United States,1964,07 Agricultural and Veterinary Sciences,664
United States,1964,09 Engineering,1033
United States,1964,04 Earth Sciences,54
United States,1964,"20 Language, Communication and Culture",12
United States,1964,06 Biological Sciences,1992
United States,1964,17 Psychology and Cognitive Sciences,578
United States,1964,14 Economics,67
United States,1964,"15 Commerce, Management, Tourism and Services",46
United States,1964,02 Physical Sciences,1299
United States,1964,12 Built Environment and Design,7
United States,1964,21 History and Archaeology,9
United States,1965,13 Education,299
United States,1965,01 Mathematical Sciences,847
United States,1965,04 Earth Sciences,83
United States,1965,21 History and Archaeology,9
United States,1965,"20 Language, Communication and Culture",11
United States,1965,22 Philosophy and Religious Studies,3
United States,1965,17 Psychology and Cognitive Sciences,550
United States,1965,16 Studies in Human Society,39
United States,1965,12 Built Environment and Design,10
United States,1965,03 Chemical Sciences,926
United States,1965,09 Engineering,1175
United States,1965,"15 Commerce, Management, Tourism and Services",46
United States,1965,02 Physical Sciences,1340
United States,1965,06 Biological Sciences,2078
United States,1965,08 Information and Computing Sciences,260
United States,1965,10 Technology,44
United States,1965,05 Environmental Sciences,288
United States,1965,07 Agricultural and Veterinary Sciences,641
United States,1965,14 Economics,62
United States,1965,11 Medical and Health Sciences,3168
United States,1966,16 Studies in Human Society,40
United States,1966,"15 Commerce, Management, Tourism and Services",47
United States,1966,14 Economics,81
United States,1966,09 Engineering,1341
United States,1966,03 Chemical Sciences,389
United States,1966,13 Education,262
United States,1966,17 Psychology and Cognitive Sciences,497
United States,1966,07 Agricultural and Veterinary Sciences,554
United States,1966,04 Earth Sciences,96
United States,1966,05 Environmental Sciences,259
United States,1966,"20 Language, Communication and Culture",28
United States,1966,22 Philosophy and Religious Studies,12
United States,1966,11 Medical and Health Sciences,2389
United States,1966,12 Built Environment and Design,8
United States,1966,10 Technology,41
United States,1966,06 Biological Sciences,1228
United States,1966,01 Mathematical Sciences,928
United States,1966,21 History and Archaeology,13
United States,1966,02 Physical Sciences,1390
United States,1966,08 Information and Computing Sciences,343
United States,1967,02 Physical Sciences,1897
United States,1967,09 Engineering,1620
United States,1967,07 Agricultural and Veterinary Sciences,538
United States,1967,13 Education,212
United States,1967,16 Studies in Human Society,61
United States,1967,06 Biological Sciences,1375
United States,1967,22 Philosophy and Religious Studies,8
United States,1967,01 Mathematical Sciences,1173
United States,1967,14 Economics,125
United States,1967,19 Studies in Creative Arts and Writing,1
United States,1967,03 Chemical Sciences,665
United States,1967,"15 Commerce, Management, Tourism and Services",92
United States,1967,04 Earth Sciences,135
United States,1967,"20 Language, Communication and Culture",22
United States,1967,17 Psychology and Cognitive Sciences,493
United States,1967,05 Environmental Sciences,287
United States,1967,21 History and Archaeology,13
United States,1967,12 Built Environment and Design,7
United States,1967,11 Medical and Health Sciences,2411
United States,1967,08 Information and Computing Sciences,285
United States,1967,10 Technology,95
United States,1968,17 Psychology and Cognitive Sciences,555
United States,1968,"20 Language, Communication and Culture",29
United States,1968,02 Physical Sciences,2005
United States,1968,14 Economics,171
United States,1968,09 Engineering,1595
United States,1968,04 Earth Sciences,127
United States,1968,16 Studies in Human Society,91
United States,1968,05 Environmental Sciences,352
United States,1968,01 Mathematical Sciences,1194
United States,1968,03 Chemical Sciences,672
United States,1968,07 Agricultural and Veterinary Sciences,539
United States,1968,"15 Commerce, Management, Tourism and Services",122
United States,1968,22 Philosophy and Religious Studies,14
United States,1968,11 Medical and Health Sciences,2375
United States,1968,13 Education,257
United States,1968,21 History and Archaeology,18
United States,1968,08 Information and Computing Sciences,303
United States,1968,06 Biological Sciences,1598
United States,1968,10 Technology,120
United States,1968,12 Built Environment and Design,6
United States,1969,11 Medical and Health Sciences,2590
United States,1969,05 Environmental Sciences,405
United States,1969,08 Information and Computing Sciences,289
United States,1969,12 Built Environment and Design,25
United States,1969,"20 Language, Communication and Culture",36
United States,1969,14 Economics,131
United States,1969,10 Technology,146
United States,1969,06 Biological Sciences,1875
United States,1969,09 Engineering,1512
United States,1969,17 Psychology and Cognitive Sciences,595
United States,1969,"15 Commerce, Management, Tourism and Services",73
United States,1969,03 Chemical Sciences,704
United States,1969,04 Earth Sciences,138
United States,1969,22 Philosophy and Religious Studies,24
United States,1969,21 History and Archaeology,39
United States,1969,07 Agricultural and Veterinary Sciences,833
United States,1969,01 Mathematical Sciences,947
United States,1969,16 Studies in Human Society,103
United States,1969,13 Education,312
United States,1969,02 Physical Sciences,1732
United States,1970,06 Biological Sciences,1896
United States,1970,19 Studies in Creative Arts and Writing,1
United States,1970,14 Economics,135
United States,1970,17 Psychology and Cognitive Sciences,604
United States,1970,08 Information and Computing Sciences,327
United States,1970,04 Earth Sciences,122
United States,1970,03 Chemical Sciences,947
United States,1970,13 Education,369
United States,1970,09 Engineering,1522
United States,1970,"15 Commerce, Management, Tourism and Services",58
United States,1970,12 Built Environment and Design,47
United States,1970,22 Philosophy and Religious Studies,36
United States,1970,10 Technology,178
United States,1970,02 Physical Sciences,1917
United States,1970,01 Mathematical Sciences,1000
United States,1970,21 History and Archaeology,26
United States,1970,"20 Language, Communication and Culture",35
United States,1970,11 Medical and Health Sciences,2575
United States,1970,07 Agricultural and Veterinary Sciences,838
United States,1970,16 Studies in Human Society,96
United States,1970,05 Environmental Sciences,422
United States,1971,05 Environmental Sciences,460
United States,1971,16 Studies in Human Society,101
United States,1971,12 Built Environment and Design,58
United States,1971,03 Chemical Sciences,913
United States,1971,04 Earth Sciences,131
United States,1971,14 Economics,213
United States,1971,21 History and Archaeology,28
United States,1971,08 Information and Computing Sciences,311
United States,1971,01 Mathematical Sciences,1013
United States,1971,09 Engineering,1682
United States,1971,07 Agricultural and Veterinary Sciences,891
United States,1971,22 Philosophy and Religious Studies,53
United States,1971,10 Technology,190
United States,1971,"15 Commerce, Management, Tourism and Services",41
United States,1971,11 Medical and Health Sciences,2562
United States,1971,06 Biological Sciences,1780
United States,1971,02 Physical Sciences,1734
United States,1971,"20 Language, Communication and Culture",35
United States,1971,17 Psychology and Cognitive Sciences,585
United States,1971,13 Education,404
United States,1972,11 Medical and Health Sciences,2641
United States,1972,13 Education,438
United States,1972,09 Engineering,1717
United States,1972,07 Agricultural and Veterinary Sciences,876
United States,1972,"15 Commerce, Management, Tourism and Services",65
United States,1972,08 Information and Computing Sciences,392
United States,1972,05 Environmental Sciences,527
United States,1972,16 Studies in Human Society,158
United States,1972,22 Philosophy and Religious Studies,43
United States,1972,01 Mathematical Sciences,987
United States,1972,04 Earth Sciences,231
United States,1972,02 Physical Sciences,1815
United States,1972,17 Psychology and Cognitive Sciences,649
United States,1972,"20 Language, Communication and Culture",29
United States,1972,06 Biological Sciences,1964
United States,1972,03 Chemical Sciences,1042
United States,1972,21 History and Archaeology,27
United States,1972,14 Economics,305
United States,1972,10 Technology,212
United States,1972,12 Built Environment and Design,53
United States,1973,08 Information and Computing Sciences,400
United States,1973,02 Physical Sciences,1780
United States,1973,"20 Language, Communication and Culture",45
United States,1973,05 Environmental Sciences,499
United States,1973,21 History and Archaeology,35
United States,1973,01 Mathematical Sciences,943
United States,1973,06 Biological Sciences,1924
United States,1973,11 Medical and Health Sciences,2767
United States,1973,04 Earth Sciences,179
United States,1973,14 Economics,344
United States,1973,22 Philosophy and Religious Studies,49
United States,1973,16 Studies in Human Society,208
United States,1973,09 Engineering,1788
United States,1973,10 Technology,254
United States,1973,13 Education,428
United States,1973,17 Psychology and Cognitive Sciences,724
United States,1973,"15 Commerce, Management, Tourism and Services",96
United States,1973,03 Chemical Sciences,1128
United States,1973,07 Agricultural and Veterinary Sciences,858
United States,1973,12 Built Environment and Design,76
United States,1974,16 Studies in Human Society,153
United States,1974,21 History and Archaeology,27
United States,1974,02 Physical Sciences,1562
United States,1974,22 Philosophy and Religious Studies,78
United States,1974,03 Chemical Sciences,990
United States,1974,05 Environmental Sciences,575
United States,1974,12 Built Environment and Design,61
United States,1974,"20 Language, Communication and Culture",68
United States,1974,13 Education,464
United States,1974,08 Information and Computing Sciences,408
United States,1974,04 Earth Sciences,269
United States,1974,10 Technology,220
United States,1974,11 Medical and Health Sciences,2709
United States,1974,06 Biological Sciences,1797
United States,1974,17 Psychology and Cognitive Sciences,829
United States,1974,01 Mathematical Sciences,934
United States,1974,07 Agricultural and Veterinary Sciences,758
United States,1974,"15 Commerce, Management, Tourism and Services",85
United States,1974,09 Engineering,1612
United States,1974,14 Economics,346
United States,1975,05 Environmental Sciences,598
United States,1975,22 Philosophy and Religious Studies,62
United States,1975,10 Technology,303
United States,1975,16 Studies in Human Society,140
United States,1975,08 Information and Computing Sciences,416
United States,1975,03 Chemical Sciences,1046
United States,1975,02 Physical Sciences,1657
United States,1975,13 Education,348
United States,1975,21 History and Archaeology,29
United States,1975,17 Psychology and Cognitive Sciences,669
United States,1975,19 Studies in Creative Arts and Writing,7
United States,1975,09 Engineering,1802
United States,1975,14 Economics,270
United States,1975,06 Biological Sciences,1689
United States,1975,11 Medical and Health Sciences,1920
United States,1975,07 Agricultural and Veterinary Sciences,737
United States,1975,12 Built Environment and Design,42
United States,1975,01 Mathematical Sciences,906
United States,1975,"15 Commerce, Management, Tourism and Services",97
United States,1975,04 Earth Sciences,253
United States,1975,"20 Language, Communication and Culture",46
United States,1976,10 Technology,314
United States,1976,06 Biological Sciences,1883
United States,1976,07 Agricultural and Veterinary Sciences,691
United States,1976,22 Philosophy and Religious Studies,63
United States,1976,02 Physical Sciences,1807
United States,1976,21 History and Archaeology,29
United States,1976,04 Earth Sciences,289
United States,1976,"15 Commerce, Management, Tourism and Services",107
United States,1976,16 Studies in Human Society,134
United States,1976,11 Medical and Health Sciences,2140
United States,1976,12 Built Environment and Design,53
United States,1976,14 Economics,287
United States,1976,09 Engineering,1966
United States,1976,08 Information and Computing Sciences,463
United States,1976,19 Studies in Creative Arts and Writing,10
United States,1976,05 Environmental Sciences,651
United States,1976,"20 Language, Communication and Culture",57
United States,1976,13 Education,404
United States,1976,03 Chemical Sciences,1170
United States,1976,17 Psychology and Cognitive Sciences,743
United States,1976,01 Mathematical Sciences,1045
United States,1977,13 Education,372
United States,1977,09 Engineering,1792
United States,1977,05 Environmental Sciences,650
United States,1977,21 History and Archaeology,39
United States,1977,12 Built Environment and Design,88
United States,1977,03 Chemical Sciences,1190
United States,1977,16 Studies in Human Society,134
United States,1977,"15 Commerce, Management, Tourism and Services",126
United States,1977,22 Philosophy and Religious Studies,66
United States,1977,10 Technology,323
United States,1977,02 Physical Sciences,1526
United States,1977,19 Studies in Creative Arts and Writing,18
United States,1977,14 Economics,277
United States,1977,01 Mathematical Sciences,836
United States,1977,07 Agricultural and Veterinary Sciences,714
United States,1977,06 Biological Sciences,1968
United States,1977,04 Earth Sciences,279
United States,1977,11 Medical and Health Sciences,2258
United States,1977,08 Information and Computing Sciences,516
United States,1977,"20 Language, Communication and Culture",87
United States,1977,17 Psychology and Cognitive Sciences,771
United States,1978,05 Environmental Sciences,648
United States,1978,21 History and Archaeology,53
United States,1978,11 Medical and Health Sciences,2358
United States,1978,03 Chemical Sciences,1190
United States,1978,22 Philosophy and Religious Studies,74
United States,1978,12 Built Environment and Design,99
United States,1978,08 Information and Computing Sciences,561
United States,1978,01 Mathematical Sciences,897
United States,1978,02 Physical Sciences,1596
United States,1978,09 Engineering,1848
United States,1978,14 Economics,365
United States,1978,04 Earth Sciences,210
United States,1978,"20 Language, Communication and Culture",83
United States,1978,10 Technology,380
United States,1978,"15 Commerce, Management, Tourism and Services",152
United States,1978,19 Studies in Creative Arts and Writing,16
United States,1978,06 Biological Sciences,1863
United States,1978,17 Psychology and Cognitive Sciences,856
United States,1978,16 Studies in Human Society,197
United States,1978,07 Agricultural and Veterinary Sciences,764
United States,1978,13 Education,420
United States,1979,09 Engineering,1875
United States,1979,01 Mathematical Sciences,923
United States,1979,14 Economics,445
United States,1979,13 Education,380
United States,1979,17 Psychology and Cognitive Sciences,810
United States,1979,11 Medical and Health Sciences,2349
United States,1979,"15 Commerce, Management, Tourism and Services",155
United States,1979,19 Studies in Creative Arts and Writing,26
United States,1979,07 Agricultural and Veterinary Sciences,779
United States,1979,16 Studies in Human Society,208
United States,1979,22 Philosophy and Religious Studies,82
United States,1979,10 Technology,420
United States,1979,03 Chemical Sciences,1353
United States,1979,06 Biological Sciences,2055
United States,1979,"20 Language, Communication and Culture",95
United States,1979,02 Physical Sciences,1635
United States,1979,21 History and Archaeology,45
United States,1979,08 Information and Computing Sciences,580
United States,1979,05 Environmental Sciences,760
United States,1979,12 Built Environment and Design,103
United States,1979,04 Earth Sciences,242
United States,1980,03 Chemical Sciences,1313
United States,1980,01 Mathematical Sciences,943
United States,1980,16 Studies in Human Society,211
United States,1980,10 Technology,411
United States,1980,11 Medical and Health Sciences,2494
United States,1980,02 Physical Sciences,1750
United States,1980,05 Environmental Sciences,775
United States,1980,08 Information and Computing Sciences,525
United States,1980,13 Education,485
United States,1980,07 Agricultural and Veterinary Sciences,766
United States,1980,14 Economics,396
United States,1980,21 History and Archaeology,64
United States,1980,"20 Language, Communication and Culture",140
United States,1980,19 Studies in Creative Arts and Writing,19
United States,1980,22 Philosophy and Religious Studies,79
United States,1980,09 Engineering,1965
United States,1980,06 Biological Sciences,2076
United States,1980,17 Psychology and Cognitive Sciences,856
United States,1980,04 Earth Sciences,248
United States,1980,12 Built Environment and Design,126
United States,1980,"15 Commerce, Management, Tourism and Services",128
United States,1981,09 Engineering,2389
United States,1981,05 Environmental Sciences,782
United States,1981,11 Medical and Health Sciences,2663
United States,1981,10 Technology,408
United States,1981,19 Studies in Creative Arts and Writing,19
United States,1981,21 History and Archaeology,50
United States,1981,22 Philosophy and Religious Studies,63
United States,1981,13 Education,510
United States,1981,14 Economics,397
United States,1981,06 Biological Sciences,2081
United States,1981,16 Studies in Human Society,252
United States,1981,08 Information and Computing Sciences,618
United States,1981,"20 Language, Communication and Culture",141
United States,1981,"15 Commerce, Management, Tourism and Services",156
United States,1981,02 Physical Sciences,2030
United States,1981,12 Built Environment and Design,101
United States,1981,01 Mathematical Sciences,1284
United States,1981,04 Earth Sciences,273
United States,1981,07 Agricultural and Veterinary Sciences,837
United States,1981,17 Psychology and Cognitive Sciences,1142
United States,1981,03 Chemical Sciences,1360
United States,1982,04 Earth Sciences,254
United States,1982,02 Physical Sciences,1902
United States,1982,22 Philosophy and Religious Studies,78
United States,1982,03 Chemical Sciences,1706
United States,1982,16 Studies in Human Society,433
United States,1982,"15 Commerce, Management, Tourism and Services",152
United States,1982,11 Medical and Health Sciences,2971
United States,1982,01 Mathematical Sciences,1039
United States,1982,06 Biological Sciences,2250
United States,1982,08 Information and Computing Sciences,635
United States,1982,14 Economics,532
United States,1982,07 Agricultural and Veterinary Sciences,819
United States,1982,05 Environmental Sciences,808
United States,1982,10 Technology,430
United States,1982,13 Education,504
United States,1982,12 Built Environment and Design,109
United States,1982,19 Studies in Creative Arts and Writing,29
United States,1982,21 History and Archaeology,70
United States,1982,17 Psychology and Cognitive Sciences,1070
United States,1982,09 Engineering,2253
United States,1982,"20 Language, Communication and Culture",152
United States,1983,16 Studies in Human Society,391
United States,1983,"15 Commerce, Management, Tourism and Services",180
United States,1983,10 Technology,458
United States,1983,09 Engineering,2167
United States,1983,17 Psychology and Cognitive Sciences,1057
United States,1983,21 History and Archaeology,47
United States,1983,03 Chemical Sciences,1555
United States,1983,22 Philosophy and Religious Studies,73
United States,1983,04 Earth Sciences,310
United States,1983,"20 Language, Communication and Culture",124
United States,1983,06 Biological Sciences,2104
United States,1983,07 Agricultural and Veterinary Sciences,890
United States,1983,08 Information and Computing Sciences,633
United States,1983,02 Physical Sciences,1904
United States,1983,11 Medical and Health Sciences,2845
United States,1983,01 Mathematical Sciences,1146
United States,1983,12 Built Environment and Design,94
United States,1983,05 Environmental Sciences,793
United States,1983,19 Studies in Creative Arts and Writing,31
United States,1983,14 Economics,487
United States,1983,13 Education,470
United States,1984,06 Biological Sciences,2140
United States,1984,12 Built Environment and Design,122
United States,1984,09 Engineering,2188
United States,1984,16 Studies in Human Society,385
United States,1984,01 Mathematical Sciences,1444
United States,1984,"20 Language, Communication and Culture",138
United States,1984,05 Environmental Sciences,858
United States,1984,04 Earth Sciences,370
United States,1984,19 Studies in Creative Arts and Writing,23
United States,1984,17 Psychology and Cognitive Sciences,1351
United States,1984,03 Chemical Sciences,1610
United States,1984,21 History and Archaeology,50
United States,1984,13 Education,489
United States,1984,08 Information and Computing Sciences,856
United States,1984,10 Technology,437
United States,1984,07 Agricultural and Veterinary Sciences,822
United States,1984,02 Physical Sciences,2200
United States,1984,22 Philosophy and Religious Studies,93
United States,1984,14 Economics,512
United States,1984,11 Medical and Health Sciences,3082
United States,1984,"15 Commerce, Management, Tourism and Services",233
United States,1985,17 Psychology and Cognitive Sciences,1089
United States,1985,06 Biological Sciences,2456
United States,1985,02 Physical Sciences,1900
United States,1985,16 Studies in Human Society,359
United States,1985,08 Information and Computing Sciences,665
United States,1985,"20 Language, Communication and Culture",118
United States,1985,07 Agricultural and Veterinary Sciences,907
United States,1985,21 History and Archaeology,45
United States,1985,10 Technology,475
United States,1985,12 Built Environment and Design,84
United States,1985,14 Economics,523
United States,1985,"15 Commerce, Management, Tourism and Services",304
United States,1985,19 Studies in Creative Arts and Writing,32
United States,1985,11 Medical and Health Sciences,3060
United States,1985,22 Philosophy and Religious Studies,90
United States,1985,03 Chemical Sciences,1471
United States,1985,13 Education,506
United States,1985,04 Earth Sciences,330
United States,1985,09 Engineering,2315
United States,1985,05 Environmental Sciences,792
United States,1985,01 Mathematical Sciences,1382
United States,1986,17 Psychology and Cognitive Sciences,1410
United States,1986,09 Engineering,2322
United States,1986,01 Mathematical Sciences,1559
United States,1986,11 Medical and Health Sciences,3307
United States,1986,03 Chemical Sciences,1465
United States,1986,22 Philosophy and Religious Studies,116
United States,1986,02 Physical Sciences,2074
United States,1986,07 Agricultural and Veterinary Sciences,868
United States,1986,12 Built Environment and Design,110
United States,1986,05 Environmental Sciences,834
United States,1986,"15 Commerce, Management, Tourism and Services",314
United States,1986,13 Education,555
United States,1986,08 Information and Computing Sciences,731
United States,1986,04 Earth Sciences,365
United States,1986,16 Studies in Human Society,314
United States,1986,21 History and Archaeology,91
United States,1986,14 Economics,475
United States,1986,19 Studies in Creative Arts and Writing,24
United States,1986,10 Technology,462
United States,1986,"20 Language, Communication and Culture",148
United States,1986,06 Biological Sciences,2536
United States,1987,07 Agricultural and Veterinary Sciences,1102
United States,1987,"20 Language, Communication and Culture",145
United States,1987,19 Studies in Creative Arts and Writing,20
United States,1987,04 Earth Sciences,442
United States,1987,14 Economics,557
United States,1987,06 Biological Sciences,3041
United States,1987,09 Engineering,2351
United States,1987,03 Chemical Sciences,1641
United States,1987,11 Medical and Health Sciences,4247
United States,1987,02 Physical Sciences,2123
United States,1987,17 Psychology and Cognitive Sciences,1371
United States,1987,21 History and Archaeology,95
United States,1987,10 Technology,441
United States,1987,22 Philosophy and Religious Studies,122
United States,1987,05 Environmental Sciences,1133
United States,1987,"15 Commerce, Management, Tourism and Services",323
United States,1987,12 Built Environment and Design,83
United States,1987,08 Information and Computing Sciences,890
United States,1987,01 Mathematical Sciences,1584
United States,1987,16 Studies in Human Society,427
United States,1987,13 Education,577
United States,1988,04 Earth Sciences,355
United States,1988,02 Physical Sciences,2151
United States,1988,13 Education,626
United States,1988,14 Economics,461
United States,1988,12 Built Environment and Design,90
United States,1988,07 Agricultural and Veterinary Sciences,1616
United States,1988,01 Mathematical Sciences,1590
United States,1988,03 Chemical Sciences,1684
United States,1988,"20 Language, Communication and Culture",183
United States,1988,19 Studies in Creative Arts and Writing,33
United States,1988,10 Technology,584
United States,1988,16 Studies in Human Society,364
United States,1988,"15 Commerce, Management, Tourism and Services",397
United States,1988,21 History and Archaeology,92
United States,1988,09 Engineering,2540
United States,1988,11 Medical and Health Sciences,5874
United States,1988,05 Environmental Sciences,1485
United States,1988,08 Information and Computing Sciences,1105
United States,1988,06 Biological Sciences,4309
United States,1988,22 Philosophy and Religious Studies,107
United States,1988,17 Psychology and Cognitive Sciences,1572
United States,1989,04 Earth Sciences,375
United States,1989,10 Technology,630
United States,1989,01 Mathematical Sciences,1695
United States,1989,06 Biological Sciences,4497
United States,1989,16 Studies in Human Society,380
United States,1989,08 Information and Computing Sciences,1167
United States,1989,19 Studies in Creative Arts and Writing,45
United States,1989,05 Environmental Sciences,1465
United States,1989,02 Physical Sciences,2334
United States,1989,"20 Language, Communication and Culture",173
United States,1989,13 Education,592
United States,1989,14 Economics,497
United States,1989,"15 Commerce, Management, Tourism and Services",456
United States,1989,11 Medical and Health Sciences,6500
United States,1989,09 Engineering,2734
United States,1989,03 Chemical Sciences,1855
United States,1989,21 History and Archaeology,108
United States,1989,22 Philosophy and Religious Studies,106
United States,1989,07 Agricultural and Veterinary Sciences,1555
United States,1989,17 Psychology and Cognitive Sciences,1914
United States,1989,12 Built Environment and Design,117
United States,1990,11 Medical and Health Sciences,6663
United States,1990,12 Built Environment and Design,94
United States,1990,06 Biological Sciences,4315
United States,1990,07 Agricultural and Veterinary Sciences,1537
United States,1990,22 Philosophy and Religious Studies,103
United States,1990,08 Information and Computing Sciences,1235
United States,1990,01 Mathematical Sciences,1667
United States,1990,05 Environmental Sciences,1527
United States,1990,03 Chemical Sciences,1788
United States,1990,"20 Language, Communication and Culture",147
United States,1990,16 Studies in Human Society,464
United States,1990,02 Physical Sciences,2172
United States,1990,14 Economics,511
United States,1990,17 Psychology and Cognitive Sciences,1481
United States,1990,10 Technology,596
United States,1990,21 History and Archaeology,83
United States,1990,13 Education,545
United States,1990,09 Engineering,2656
United States,1990,04 Earth Sciences,370
United States,1990,19 Studies in Creative Arts and Writing,23
United States,1990,"15 Commerce, Management, Tourism and Services",495
United States,1991,06 Biological Sciences,4484
United States,1991,07 Agricultural and Veterinary Sciences,1669
United States,1991,04 Earth Sciences,521
United States,1991,12 Built Environment and Design,104
United States,1991,13 Education,570
United States,1991,11 Medical and Health Sciences,7648
United States,1991,02 Physical Sciences,2576
United States,1991,10 Technology,661
United States,1991,21 History and Archaeology,121
United States,1991,09 Engineering,3044
United States,1991,14 Economics,560
United States,1991,05 Environmental Sciences,1484
United States,1991,"15 Commerce, Management, Tourism and Services",467
United States,1991,16 Studies in Human Society,529
United States,1991,08 Information and Computing Sciences,1265
United States,1991,03 Chemical Sciences,1773
United States,1991,17 Psychology and Cognitive Sciences,1970
United States,1991,01 Mathematical Sciences,1844
United States,1991,"20 Language, Communication and Culture",215
United States,1991,22 Philosophy and Religious Studies,150
United States,1991,19 Studies in Creative Arts and Writing,37
United States,1992,19 Studies in Creative Arts and Writing,15
United States,1992,17 Psychology and Cognitive Sciences,1796
United States,1992,09 Engineering,2875
United States,1992,16 Studies in Human Society,533
United States,1992,13 Education,579
United States,1992,04 Earth Sciences,385
United States,1992,01 Mathematical Sciences,1668
United States,1992,"15 Commerce, Management, Tourism and Services",452
United States,1992,"20 Language, Communication and Culture",188
United States,1992,06 Biological Sciences,4487
United States,1992,11 Medical and Health Sciences,6895
United States,1992,08 Information and Computing Sciences,1045
United States,1992,21 History and Archaeology,110
United States,1992,07 Agricultural and Veterinary Sciences,1653
United States,1992,02 Physical Sciences,2279
United States,1992,14 Economics,614
United States,1992,05 Environmental Sciences,1296
United States,1992,12 Built Environment and Design,157
United States,1992,22 Philosophy and Religious Studies,121
United States,1992,10 Technology,734
United States,1992,03 Chemical Sciences,1888
United States,1993,07 Agricultural and Veterinary Sciences,1551
United States,1993,10 Technology,820
United States,1993,13 Education,595
United States,1993,02 Physical Sciences,2579
United States,1993,09 Engineering,3351
United States,1993,"20 Language, Communication and Culture",193
United States,1993,03 Chemical Sciences,1794
United States,1993,19 Studies in Creative Arts and Writing,35
United States,1993,01 Mathematical Sciences,1757
United States,1993,21 History and Archaeology,111
United States,1993,11 Medical and Health Sciences,7926
United States,1993,04 Earth Sciences,388
United States,1993,12 Built Environment and Design,133
United States,1993,16 Studies in Human Society,582
United States,1993,05 Environmental Sciences,1367
United States,1993,14 Economics,597
United States,1993,17 Psychology and Cognitive Sciences,2085
United States,1993,08 Information and Computing Sciences,989
United States,1993,22 Philosophy and Religious Studies,115
United States,1993,06 Biological Sciences,4529
United States,1993,"15 Commerce, Management, Tourism and Services",541
United States,1993,18 Law and Legal Studies,3
United States,1994,17 Psychology and Cognitive Sciences,1866
United States,1994,06 Biological Sciences,4551
United States,1994,01 Mathematical Sciences,1764
United States,1994,09 Engineering,3301
United States,1994,22 Philosophy and Religious Studies,125
United States,1994,16 Studies in Human Society,589
United States,1994,19 Studies in Creative Arts and Writing,77
United States,1994,02 Physical Sciences,2484
United States,1994,08 Information and Computing Sciences,967
United States,1994,03 Chemical Sciences,1729
United States,1994,14 Economics,552
United States,1994,"20 Language, Communication and Culture",289
United States,1994,12 Built Environment and Design,132
United States,1994,11 Medical and Health Sciences,7712
United States,1994,04 Earth Sciences,425
United States,1994,13 Education,535
United States,1994,05 Environmental Sciences,1323
United States,1994,07 Agricultural and Veterinary Sciences,1559
United States,1994,10 Technology,776
United States,1994,"15 Commerce, Management, Tourism and Services",556
United States,1994,21 History and Archaeology,114
United States,1994,18 Law and Legal Studies,5
United States,1995,08 Information and Computing Sciences,1077
United States,1995,01 Mathematical Sciences,1770
United States,1995,22 Philosophy and Religious Studies,145
United States,1995,19 Studies in Creative Arts and Writing,86
United States,1995,03 Chemical Sciences,1881
United States,1995,14 Economics,590
United States,1995,04 Earth Sciences,440
United States,1995,"15 Commerce, Management, Tourism and Services",620
United States,1995,17 Psychology and Cognitive Sciences,1746
United States,1995,02 Physical Sciences,2377
United States,1995,21 History and Archaeology,145
United States,1995,09 Engineering,3336
United States,1995,11 Medical and Health Sciences,8161
United States,1995,05 Environmental Sciences,1333
United States,1995,06 Biological Sciences,4404
United States,1995,10 Technology,710
United States,1995,16 Studies in Human Society,672
United States,1995,07 Agricultural and Veterinary Sciences,1581
United States,1995,12 Built Environment and Design,140
United States,1995,13 Education,738
United States,1995,"20 Language, Communication and Culture",230
United States,1995,18 Law and Legal Studies,20
United States,1996,22 Philosophy and Religious Studies,153
United States,1996,18 Law and Legal Studies,12
United States,1996,"15 Commerce, Management, Tourism and Services",640
United States,1996,01 Mathematical Sciences,1914
United States,1996,10 Technology,809
United States,1996,12 Built Environment and Design,127
United States,1996,21 History and Archaeology,136
United States,1996,03 Chemical Sciences,3291
United States,1996,17 Psychology and Cognitive Sciences,1835
United States,1996,16 Studies in Human Society,645
United States,1996,13 Education,755
United States,1996,14 Economics,590
United States,1996,07 Agricultural and Veterinary Sciences,1515
United States,1996,04 Earth Sciences,452
United States,1996,19 Studies in Creative Arts and Writing,148
United States,1996,11 Medical and Health Sciences,7813
United States,1996,09 Engineering,3646
United States,1996,02 Physical Sciences,2597
United States,1996,06 Biological Sciences,4715
United States,1996,"20 Language, Communication and Culture",258
United States,1996,08 Information and Computing Sciences,1289
United States,1996,05 Environmental Sciences,1346
United States,1997,11 Medical and Health Sciences,8279
United States,1997,09 Engineering,3605
United States,1997,03 Chemical Sciences,3327
United States,1997,18 Law and Legal Studies,26
United States,1997,05 Environmental Sciences,1287
United States,1997,01 Mathematical Sciences,1808
United States,1997,22 Philosophy and Religious Studies,130
United States,1997,19 Studies in Creative Arts and Writing,108
United States,1997,06 Biological Sciences,4644
United States,1997,08 Information and Computing Sciences,1040
United States,1997,"15 Commerce, Management, Tourism and Services",567
United States,1997,13 Education,717
United States,1997,17 Psychology and Cognitive Sciences,1699
United States,1997,10 Technology,763
United States,1997,21 History and Archaeology,175
United States,1997,14 Economics,607
United States,1997,07 Agricultural and Veterinary Sciences,1567
United States,1997,04 Earth Sciences,427
United States,1997,02 Physical Sciences,2465
United States,1997,16 Studies in Human Society,708
United States,1997,"20 Language, Communication and Culture",304
United States,1997,12 Built Environment and Design,106
United States,1998,08 Information and Computing Sciences,1037
United States,1998,05 Environmental Sciences,1337
United States,1998,13 Education,675
United States,1998,"15 Commerce, Management, Tourism and Services",579
United States,1998,12 Built Environment and Design,86
United States,1998,11 Medical and Health Sciences,9661
United States,1998,06 Biological Sciences,4684
United States,1998,22 Philosophy and Religious Studies,114
United States,1998,19 Studies in Creative Arts and Writing,149
United States,1998,01 Mathematical Sciences,1941
United States,1998,14 Economics,574
United States,1998,10 Technology,672
United States,1998,03 Chemical Sciences,3198
United States,1998,21 History and Archaeology,190
United States,1998,18 Law and Legal Studies,29
United States,1998,02 Physical Sciences,2529
United States,1998,17 Psychology and Cognitive Sciences,2118
United States,1998,04 Earth Sciences,393
United States,1998,09 Engineering,3515
United States,1998,16 Studies in Human Society,592
United States,1998,07 Agricultural and Veterinary Sciences,1638
United States,1998,"20 Language, Communication and Culture",319
United States,1999,07 Agricultural and Veterinary Sciences,1735
United States,1999,17 Psychology and Cognitive Sciences,1986
United States,1999,21 History and Archaeology,153
United States,1999,06 Biological Sciences,5015
United States,1999,11 Medical and Health Sciences,9635
United States,1999,05 Environmental Sciences,1330
United States,1999,02 Physical Sciences,3617
United States,1999,03 Chemical Sciences,3329
United States,1999,16 Studies in Human Society,753
United States,1999,09 Engineering,4237
United States,1999,"15 Commerce, Management, Tourism and Services",703
United States,1999,10 Technology,905
United States,1999,04 Earth Sciences,445
United States,1999,18 Law and Legal Studies,40
United States,1999,08 Information and Computing Sciences,1035
United States,1999,14 Economics,710
United States,1999,22 Philosophy and Religious Studies,117
United States,1999,01 Mathematical Sciences,2484
United States,1999,13 Education,758
United States,1999,19 Studies in Creative Arts and Writing,131
United States,1999,"20 Language, Communication and Culture",258
United States,1999,12 Built Environment and Design,81
United States,2000,04 Earth Sciences,433
United States,2000,11 Medical and Health Sciences,9756
United States,2000,12 Built Environment and Design,80
United States,2000,"15 Commerce, Management, Tourism and Services",674
United States,2000,08 Information and Computing Sciences,1173
United States,2000,21 History and Archaeology,161
United States,2000,19 Studies in Creative Arts and Writing,137
United States,2000,14 Economics,654
United States,2000,07 Agricultural and Veterinary Sciences,1891
United States,2000,02 Physical Sciences,3644
United States,2000,05 Environmental Sciences,1613
United States,2000,16 Studies in Human Society,609
United States,2000,17 Psychology and Cognitive Sciences,2278
United States,2000,"20 Language, Communication and Culture",291
United States,2000,22 Philosophy and Religious Studies,105
United States,2000,01 Mathematical Sciences,2584
United States,2000,03 Chemical Sciences,3610
United States,2000,06 Biological Sciences,5549
United States,2000,09 Engineering,4514
United States,2000,10 Technology,886
United States,2000,13 Education,813
United States,2000,18 Law and Legal Studies,40
United States,2001,09 Engineering,4309
United States,2001,"15 Commerce, Management, Tourism and Services",677
United States,2001,04 Earth Sciences,452
United States,2001,08 Information and Computing Sciences,1144
United States,2001,13 Education,801
United States,2001,19 Studies in Creative Arts and Writing,115
United States,2001,11 Medical and Health Sciences,8621
United States,2001,07 Agricultural and Veterinary Sciences,1741
United States,2001,10 Technology,838
United States,2001,12 Built Environment and Design,116
United States,2001,22 Philosophy and Religious Studies,111
United States,2001,18 Law and Legal Studies,33
United States,2001,01 Mathematical Sciences,2618
United States,2001,"20 Language, Communication and Culture",242
United States,2001,16 Studies in Human Society,636
United States,2001,17 Psychology and Cognitive Sciences,1959
United States,2001,03 Chemical Sciences,3698
United States,2001,21 History and Archaeology,156
United States,2001,06 Biological Sciences,4826
United States,2001,02 Physical Sciences,3746
United States,2001,14 Economics,646
United States,2001,05 Environmental Sciences,1406
United States,2002,03 Chemical Sciences,3493
United States,2002,05 Environmental Sciences,1502
United States,2002,16 Studies in Human Society,547
United States,2002,"15 Commerce, Management, Tourism and Services",771
United States,2002,"20 Language, Communication and Culture",251
United States,2002,12 Built Environment and Design,111
United States,2002,06 Biological Sciences,4757
United States,2002,21 History and Archaeology,157
United States,2002,13 Education,814
United States,2002,19 Studies in Creative Arts and Writing,122
United States,2002,09 Engineering,4231
United States,2002,02 Physical Sciences,3876
United States,2002,01 Mathematical Sciences,2762
United States,2002,14 Economics,701
United States,2002,04 Earth Sciences,491
United States,2002,08 Information and Computing Sciences,1271
United States,2002,17 Psychology and Cognitive Sciences,2149
United States,2002,10 Technology,907
United States,2002,22 Philosophy and Religious Studies,107
United States,2002,18 Law and Legal Studies,22
United States,2002,07 Agricultural and Veterinary Sciences,1584
United States,2002,11 Medical and Health Sciences,8315
United States,2003,05 Environmental Sciences,1566
United States,2003,18 Law and Legal Studies,30
United States,2003,01 Mathematical Sciences,2684
United States,2003,"15 Commerce, Management, Tourism and Services",755
United States,2003,17 Psychology and Cognitive Sciences,2044
United States,2003,03 Chemical Sciences,3575
United States,2003,"20 Language, Communication and Culture",277
United States,2003,07 Agricultural and Veterinary Sciences,1689
United States,2003,06 Biological Sciences,4914
United States,2003,09 Engineering,4464
United States,2003,04 Earth Sciences,566
United States,2003,10 Technology,970
United States,2003,14 Economics,713
United States,2003,22 Philosophy and Religious Studies,122
United States,2003,08 Information and Computing Sciences,1335
United States,2003,11 Medical and Health Sciences,8359
United States,2003,21 History and Archaeology,175
United States,2003,02 Physical Sciences,3787
United States,2003,19 Studies in Creative Arts and Writing,130
United States,2003,16 Studies in Human Society,656
United States,2003,12 Built Environment and Design,166
United States,2003,13 Education,913
United States,2004,11 Medical and Health Sciences,9647
United States,2004,18 Law and Legal Studies,37
United States,2004,04 Earth Sciences,621
United States,2004,07 Agricultural and Veterinary Sciences,1860
United States,2004,13 Education,922
United States,2004,02 Physical Sciences,4157
United States,2004,06 Biological Sciences,5112
United States,2004,"20 Language, Communication and Culture",301
United States,2004,"15 Commerce, Management, Tourism and Services",671
United States,2004,17 Psychology and Cognitive Sciences,2643
United States,2004,21 History and Archaeology,242
United States,2004,08 Information and Computing Sciences,1314
United States,2004,10 Technology,908
United States,2004,19 Studies in Creative Arts and Writing,180
United States,2004,14 Economics,668
United States,2004,09 Engineering,4859
United States,2004,16 Studies in Human Society,598
United States,2004,01 Mathematical Sciences,2949
United States,2004,03 Chemical Sciences,3811
United States,2004,12 Built Environment and Design,133
United States,2004,05 Environmental Sciences,1603
United States,2004,22 Philosophy and Religious Studies,140
United States,2005,18 Law and Legal Studies,40
United States,2005,"20 Language, Communication and Culture",268
United States,2005,06 Biological Sciences,5510
United States,2005,05 Environmental Sciences,1737
United States,2005,04 Earth Sciences,566
United States,2005,01 Mathematical Sciences,3535
United States,2005,16 Studies in Human Society,660
United States,2005,17 Psychology and Cognitive Sciences,2608
United States,2005,07 Agricultural and Veterinary Sciences,1891
United States,2005,09 Engineering,5331
United States,2005,10 Technology,1102
United States,2005,14 Economics,738
United States,2005,13 Education,1012
United States,2005,02 Physical Sciences,4426
United States,2005,19 Studies in Creative Arts and Writing,189
United States,2005,11 Medical and Health Sciences,10459
United States,2005,12 Built Environment and Design,150
United States,2005,"15 Commerce, Management, Tourism and Services",743
United States,2005,22 Philosophy and Religious Studies,113
United States,2005,08 Information and Computing Sciences,1451
United States,2005,03 Chemical Sciences,3982
United States,2005,21 History and Archaeology,189
